{
  "siteName": "Frau Steiner",
  "bundles": {
    "Poster": {
      "copies": 100,
      "size": "A3",
      "paper": "Arco Milk Print - 120g",
      "pages": {
        "Poster": {
          "hasVerso": false,
          "colors": {
            "recto": {},
            "verso": null
          }
        }
      }
    }
  },
  "vat":{
    "ratio": 1.21
  },
  "extraCosts": {
    "booklet": {
      "sheets": 100,
      "price": 2,
      "quantities": {
        "100": "1",
        "500": "0.7",
        "1000": "0.5"
      }
    },
    "triming": {
      "sheets": 100,
      "price": 10,
      "quantities": {
        "100": "1",
        "500": "0.7",
        "1000": "0.5"
      }
    },
    "binding": {
      "sheets": 50,
      "price": 5,
      "quantities": {
        "100": "1",
        "500": "0.7",
        "1000": "0.5"
      }
    }
  },
  "steps": [
    "Paper and Size",
    "Page Artworks",
    "Your Details",
    "Delivery and Payment",
    "Order Sent!"
  ],
  "form": {
    "step": {
      "size": "size",
      "type": "type",
      "paper": "paper",
      "pages": "pages",
      "colors": "colors",
      "quantity": "quantity",
      "result": "result"
    }
  },
  "types": [
    "single",
    "recto/verso",
    "booklet"
  ],
  "formats": {
    "A3": {
      "isAvailable": true,
      "plain": 1,
      "reduced": 1
    },
    "A4":  {
      "isAvailable": true,
      "plain": 2,
      "reduced": 1
    },
    "A4 Booklet (folded A3)":  {
      "isAvailable": true,
      "plain": 2,
      "reduced": 1
    },
    "A5":  {
      "isAvailable": true,
      "plain": 4,
      "reduced": 2
    },
    "A6":  {
      "isAvailable": true,
      "plain": 8,
      "reduced": 4
    },
    "Carte Postale":  {
      "isAvailable": true,
      "plain": 8,
      "reduced": 4
    },
    "Carte de visite":  {
      "isAvailable": true,
      "plain": 16,
      "reduced": 8
    }
  },
  "sheetsPerA3": {
    "A3": 1,
    "A4": 2,
    "A5": 4,
    "A6": 8,
    "Carte Postale": 8,
    "Carte de visite": 16
  },
  "pageNames": {
    "1": "recto",
    "2": "verso"
  },
  "prices": [
    "0.70",
    "0.40",
    "0.20",
    "0.10"
  ],
  "colors": {
    "master": {
      "price": "12.5"
    },
    "maxPerSide": 6,
    "price": {
      "standard": [
        "0.20",
        "0.15",
        "0.10",
        "0.10"
      ],
      "special": [
        "0.40",
        "0.35",
        "0.30",
        "0.30"
      ]
    },
    "standard": {
      "black": {
        "type": "standard",
        "availability": true,
        "price": "standard",
        "hex": "#000000",
        "rgb": "0, 0, 0",
        "cmyk": "0, 0, 0, 100",
        "pantone": "BLACK U"
      },
      "blue": {
        "type": "standard",
        "availability": true,
        "price": "standard",
        "hex": "#0078BF",
        "rgb": "0, 120, 191",
        "cmyk": "99, 22, 0, 1",
        "pantone": "3005 U"
      },
      "crimson": {
        "type": "standard",
        "availability": true,
        "price": "standard",
        "hex": "#FF7477",
        "rgb": "0, 120, 191",
        "cmyk": "99, 22, 0, 1",
        "pantone": "485 U"
      },
      "bright red": {
        "type": "standard",
        "availability": false,
        "price": "standard",
        "hex": "#F15060",
        "rgb": "241, 80, 96",
        "cmyk": "0, 67, 60, 5",
        "pantone": "185 U"
      },
      "brown": {
        "type": "standard",
        "availability": false,
        "price": "standard",
        "hex": "#925F52",
        "rgb": "146, 95, 82",
        "cmyk": "18, 62, 84, 23",
        "pantone": "7526 U"
      },
      "burgundy": {
        "type": "standard",
        "availability": false,
        "price": "standard",
        "hex": "#914E72",
        "rgb": "145, 78, 114",
        "cmyk": "24, 94, 1, 21",
        "pantone": "235 U"
      },
      "federal blue": {
        "type": "standard",
        "availability": true,
        "price": "standard",
        "hex": "#3D5588",
        "rgb": "187, 139, 65",
        "cmyk": "6, 26, 97, 15",
        "pantone": "288 U"
      },
      "flat gold": {
        "type": "standard",
        "availability": true,
        "price": "standard",
        "hex": "#BB8B41",
        "rgb": "187, 139, 65",
        "cmyk": "6, 26, 97, 15",
        "pantone": "1245 U"
      },
      "fluorescent pink": {
        "type": "standard",
        "availability": true,
        "price": "standard",
        "hex": "#FF48B0",
        "rgb": "xxx",
        "cmyk": "xxx",
        "pantone": "806 U"
      },
      "green": {
        "type": "standard",
        "availability": true,
        "price": "standard",
        "hex": "#00A95C",
        "rgb": "xxx",
        "cmyk": "xxx",
        "pantone": "354 U"
      },
      "light gray": {
        "type": "standard",
        "availability": false,
        "price": "standard",
        "hex": "#88898A",
        "rgb": "xxx",
        "cmyk": "xxx",
        "pantone": "xxx"
      },
      "medium blue": {
        "type": "standard",
        "availability": true,
        "price": "standard",
        "hex": "#3255A4",
        "rgb": "0, 120, 191",
        "cmyk": "99, 22, 0, 1",
        "pantone": "286 U"
      },
      "metallic gold": {
        "type": "special",
        "availability": true,
        "price": "special",
        "hex": "#AC936E",
        "rgb": "172, 147, 110",
        "cmyk": "22, 33, 68, 8",
        "pantone": "872 U"
      },
      "mint": {
        "type": "special",
        "availability": true,
        "price": "special",
        "hex": "#82D8D5",
        "rgb": "xxx",
        "cmyk": "xxx",
        "pantone": "324 U"
      },
      "orange": {
        "type": "standard",
        "availability": true,
        "price": "standard",
        "hex": "#FF6C2F",
        "rgb": "xxx",
        "cmyk": "xxx",
        "pantone": "021 U"
      },
      "purple": {
        "type": "standard",
        "availability": true,
        "price": "standard",
        "hex": "#765BA7",
        "rgb": "xxx",
        "cmyk": "xxx",
        "pantone": "2685 U"
      },
      "red": {
        "type": "standard",
        "availability": true,
        "price": "standard",
        "hex": "#FF665E",
        "rgb": "xxx",
        "cmyk": "xxx",
        "pantone": "WARM RED U"
      },
      "teal": {
        "type": "standard",
        "availability": true,
        "price": "standard",
        "hex": "#00838A",
        "rgb": "xxx",
        "cmyk": "xxx",
        "pantone": "321 U"
      },
      "yellow": {
        "type": "standard",
        "availability": true,
        "price": "standard",
        "hex": "#FFE800",
        "rgb": "xxx",
        "cmyk": "xxx",
        "pantone": "Yellow U"
      }
    }
  },
  "papersOld": {
      "Metapaper Rough Warmwhite - 90g": {
          "49": "0.20",
          "99": "0.20",
          "499": "0.15",
          "10000": "0.15"
      },
      "Metapaper Rough Warmwhite - 240g": {
          "49": "0.50",
          "99": "0.45",
          "499": "0.35",
          "10000": "0.35"
      },
      "Metapaper Extra Rough Warmwhite - 350g": {
          "49": "0.90",
          "99": "0.90",
          "499": "0.75",
          "10000": "0.70"
      }
  },
  "papers": {
      "Metapaper Rough Warmwhite 90gsm": {
        "availability": true,
        "quantities": [
          "49",
          "99",
          "499",
          "10000"
        ],
        "prices": [
          "0.20",
          "0.20",
          "0.15",
          "0.15"
        ]
      },
      "Metapaper Extrarough Warmwhite 105gsm": {
        "availability": true,
        "quantities": [
          "49",
          "99",
          "499",
          "10000"
        ],
        "prices": [
          "0.25",
          "0.25",
          "0.20",
          "0.20"
        ]
      },
      "Fedrigoni Arco Print Milk 120gsm": {
        "availability": true,
        "quantities": [
          "49",
          "99",
          "499",
          "10000"
        ],
        "prices": [
          "0.30",
          "0.30",
          "0.25",
          "0.25"
        ]
      },
      "Fedrigoni Arco Print Milk 150gsm": {
        "availability": true,
        "quantities": [
          "49",
          "99",
          "499",
          "10000"
        ],
        "prices": [
          "0.30",
          "0.30",
          "0.25",
          "0.25"
        ]
      },
      "Metapaper Extrarough Warmwhite 175gsm": {
        "availability": true,
        "quantities": [
          "49",
          "99",
          "499",
          "10000"
        ],
        "prices": [
          "0.40",
          "0.40",
          "0.35",
          "0.35"
        ]
      },
      "Metapaper Extrarough Warmwhite 240gsm": {
        "availability": true,
        "quantities": [
          "49",
          "99",
          "499",
          "10000"
        ],
        "prices": [
          "0.45",
          "0.45",
          "0.40",
          "0.40"
        ]
      },
      "Metapaper Extrarough Warmwhite 270gsm": {
        "availability": true,
        "quantities": [
          "49",
          "99",
          "499",
          "10000"
        ],
        "prices": [
          "0.55",
          "0.55",
          "0.50",
          "0.50"
        ]
      },
      "Colored : Cf Intensive Orange 120gsm": {
        "availability": true,
        "quantities": [
          "10000"
        ],
        "prices": [
          "0.30"
        ]
      },
      "Colored : Cf Intensive Yellow 120gsm": {
        "availability": true,
        "quantities": [
          "10000"
        ],
        "prices": [
          "0.30"
        ]
      },
      "Colored : Cf Light Grey 120gsm": {
        "availability": true,
        "quantities": [
          "10000"
        ],
        "prices": [
          "0.30"
        ]
      },
      "Colored : Cf Pastel Blue 120gsm": {
        "availability": true,
        "quantities": [
          "10000"
        ],
        "prices": [
          "0.30"
        ]
      },
      "Colored : Cf Pastel Green 120gsm": {
        "availability": true,
        "quantities": [
          "10000"
        ],
        "prices": [
          "0.30"
        ]
      },
      "Colored : Cf Pastel Pink 120gsm": {
        "availability": true,
        "quantities": [
          "10000"
        ],
        "prices": [
          "0.30"
        ]
      },
      "Your own paper": {
        "availability": true,
        "quantities": [
          "10000"
        ],
        "prices": [
          0
        ]
    }
  },
  "delivery":
  {
    "self": {
      "text": "I will pick up the prints at Frau Steiner",
      "price": 0
    },
    "brussels": {
      "text": "Hush Rush will deliver the prints in Brussels",
      "price": 10
    },
    "Belgium": {
      "text": "Bpost for Belgium",
      "price": 15
    },
    "EU Standard": {
      "text": "Bpost for Europe Standard",
      "price": 20
    },
    "EU Express": {
      "text": "Bpost for Europe Express",
      "price": 30
    }
  }
}